<?xml version="1.0" encoding="UTF-8"?>
<svg width="17px" height="18px" viewBox="0 0 17 18" version="1.1" xmlns="http://www.w3.org/2000/svg" xmlns:xlink="http://www.w3.org/1999/xlink">
    <g id="Symbols" stroke="none" stroke-width="1" fill="none" fill-rule="evenodd">
        <g id="Header" transform="translate(-1216.000000, -27.000000)" fill="#999999" fill-rule="nonzero">
            <g id="Notifications" transform="translate(1216.000000, 25.000000)">
                <g id="notification-bell">
                    <path d="M12.8451236,9.44714607 C10.5391011,4.48501124 9.34058427,2.60067416 5.57251685,2.67853933 C4.23060674,2.70624719 4.55298876,1.70674157 3.52982022,2.08595506 C2.50746067,2.46537079 3.38480899,3.02033708 2.33878652,3.87847191 C-0.596426966,6.28764045 -0.325820225,8.51660674 1.03530337,13.8288315 C1.6092809,16.0660899 -0.347258427,16.1759101 0.42694382,18.3450112 C0.991820225,19.926382 5.15811236,20.5885393 9.55375281,18.9574157 C13.9493933,17.3266966 16.7240225,14.0893258 16.1591461,12.5079551 C15.3847416,10.3388539 13.8169213,11.5363596 12.8451236,9.44714607 Z M9.07665169,17.6211685 C5.15103371,19.0777528 1.92458427,18.2208315 1.78826966,17.8402022 C1.55325843,17.1833034 3.05555056,14.9923596 7.54361798,13.3268539 C12.0320899,11.6615506 14.5365169,12.2790112 14.798427,13.012764 C14.9533483,13.4459775 13.0026742,16.1645843 9.07665169,17.6211685 Z M7.81503371,14.0871011 C5.76262921,14.848764 4.33617978,15.7198427 3.41332584,16.5041573 C4.06274157,17.0943146 5.28006742,17.2383146 6.49355056,16.7881124 C8.03811236,16.2151461 8.98644944,14.8997303 8.6112809,13.8502697 C8.60703371,13.8375281 8.6001573,13.8262022 8.59550562,13.8136629 C8.34229213,13.8973933 8.08240449,13.988 7.81503371,14.0871011 Z" id="Shape"></path>
                </g>
            </g>
        </g>
    </g>
</svg>
