<?xml version="1.0" encoding="UTF-8"?>
<svg width="4px" height="16px" viewBox="0 0 4 16" version="1.1" xmlns="http://www.w3.org/2000/svg" xmlns:xlink="http://www.w3.org/1999/xlink">
    <g id="Page-1" stroke="none" stroke-width="1" fill="none" fill-rule="evenodd" opacity="0.599999964">
        <g id="Elpaso__Dashboard" transform="translate(-974.000000, -563.000000)" fill="#1F1F1F">
            <g id="Cashflow" transform="translate(1.000000, 550.000000)">
                <g id="Accounts-bar-(3)" transform="translate(450.000000, 0.000000)">
                    <g id="Normal" transform="translate(360.000000, 0.000000)">
                        <g id="Group-4" transform="translate(163.000000, 13.000000)">
                            <circle id="Oval-4" cx="2" cy="14" r="2"></circle>
                            <circle id="Oval-4" cx="2" cy="8" r="2"></circle>
                            <circle id="Oval-4" cx="2" cy="2" r="2"></circle>
                        </g>
                    </g>
                </g>
            </g>
        </g>
    </g>
</svg>
