<?xml version="1.0" encoding="UTF-8"?>
<svg width="12px" height="13px" viewBox="0 0 12 13" version="1.1" xmlns="http://www.w3.org/2000/svg" xmlns:xlink="http://www.w3.org/1999/xlink">
    <g id="Page-1" stroke="none" stroke-width="1" fill="none" fill-rule="evenodd">
        <g id="Elpaso__Dashboard" transform="translate(-569.000000, -1161.000000)" fill="#999999" fill-rule="nonzero">
            <g id="Cashflow" transform="translate(1.000000, 550.000000)">
                <g id="Period" transform="translate(388.000000, 611.000000)">
                    <g id="day-one" transform="translate(180.000000, 0.000000)">
                        <path d="M11.2925395,1.3178847 L9.31633002,1.3178847 L9.31633002,0.49405237 C9.31633002,0.221335462 9.09524158,0 8.82227765,0 C8.54956074,0 8.32822528,0.221335462 8.32822528,0.49405237 L8.32822528,1.3178847 L3.88175395,1.3178847 L3.88175395,0.49405237 C3.88175395,0.221335462 3.66066552,0 3.38770158,0 C3.11498467,0 2.89364921,0.221335462 2.89364921,0.49405237 L2.89364921,1.3178847 L0.752920294,1.3178847 C0.47995636,1.3178847 0.258867925,1.53922016 0.258867925,1.81193707 L0.258867925,12.5059476 C0.258867925,12.7786645 0.47995636,13 0.752920294,13 L11.2925395,13 C11.5655034,13 11.7865919,12.7786645 11.7865919,12.5059476 L11.7865919,1.81193707 C11.7865919,1.53897313 11.5655034,1.3178847 11.2925395,1.3178847 Z M10.5,5.5 L1.5,5.5 L1.5,2.5 L10.5,2.5 L10.5,5.5 Z" id="Shape"></path>
                    </g>
                </g>
            </g>
        </g>
    </g>
</svg>
