<?xml version="1.0" encoding="UTF-8"?>
<svg width="13px" height="10px" viewBox="0 0 13 10" version="1.1" xmlns="http://www.w3.org/2000/svg" xmlns:xlink="http://www.w3.org/1999/xlink">
    <g id="Page-1" stroke="none" stroke-width="1" fill="none" fill-rule="evenodd">
        <g id="Elpaso__Dashboard" transform="translate(-1193.000000, -1099.000000)" fill="#999999" fill-rule="nonzero">
            <g id="Cashflow" transform="translate(1.000000, 550.000000)">
                <g id="Tabs-bar" transform="translate(0.000000, 497.000000)">
                    <g id="export-arrow" transform="translate(1189.000000, 52.000000)">
                        <path d="M11,2.477 C7.461,2.512 3.967,5.601 3.967,9.523 C5.661,7.873 7.667,6.387 11,6.507 L11,8.5 L16,4.5 L11,0.5 L11,2.477 Z" id="Shape"></path>
                    </g>
                </g>
            </g>
        </g>
    </g>
</svg>
