<?xml version="1.0" encoding="UTF-8"?>
<svg width="20px" height="16px" viewBox="0 0 20 16" version="1.1" xmlns="http://www.w3.org/2000/svg" xmlns:xlink="http://www.w3.org/1999/xlink">
    <g id="Page-1" stroke="none" stroke-width="1" fill="none" fill-rule="evenodd">
        <g id="Elpaso__Dashboard" transform="translate(-160.000000, -132.000000)" fill="#999999" fill-rule="nonzero">
            <g id="Tasks-list" transform="translate(136.000000, 108.000000)">
                <path d="M42.858929,31.6497049 L39.8882623,24.7601311 C39.805071,24.5519563 39.653377,24.3773115 39.4326995,24.2359344 C39.2123279,24.0943388 38.9939235,24.0237377 38.7776175,24.0237377 L28.3933989,24.0237377 C28.1770492,24.0237377 27.9586448,24.0943388 27.7382295,24.2359344 C27.5178142,24.3773115 27.3657705,24.5519563 27.282623,24.7601311 L24.312,31.6497049 C24.1039563,32.1572896 24,32.6689399 24,33.1847869 L24,39.2008743 C24,39.417224 24.0789945,39.6043716 24.2371148,39.7625355 C24.3953224,39.9204809 24.5825574,39.9996503 24.7989071,39.9996503 L42.3722842,39.9996503 C42.5885902,39.9996503 42.7757377,39.9204809 42.9339016,39.7625355 C43.0918907,39.6044153 43.1708852,39.4172678 43.1708852,39.2008743 L43.1708852,33.1847869 C43.1708415,32.6689399 43.0671475,32.1572896 42.858929,31.6497049 Z M36.7681311,32.8104481 L35.5828634,35.2069071 L31.5886776,35.2069071 L30.4029727,32.8104481 L26.4588852,32.8104481 C26.4673224,32.7938361 26.4775956,32.760612 26.4901421,32.7106885 C26.5026885,32.6608525 26.5130929,32.6274973 26.5213989,32.6108852 L29.1673443,26.4204153 L38.0039781,26.4204153 L40.6497049,32.6108852 C40.6581858,32.6360219 40.6685464,32.6692459 40.6807869,32.7106885 C40.693377,32.7520874 40.703694,32.7853115 40.7122186,32.8104481 L36.7681311,32.8104481 Z" id="Shape"></path>
            </g>
        </g>
    </g>
</svg>
