<?xml version="1.0" encoding="UTF-8"?>
<svg width="20px" height="20px" viewBox="0 0 20 20" version="1.1" xmlns="http://www.w3.org/2000/svg" xmlns:xlink="http://www.w3.org/1999/xlink">
    <g id="Symbols" stroke="none" stroke-width="1" fill="none" fill-rule="evenodd">
        <g id="Button/Material-Plus" transform="translate(-20.000000, -20.000000)" fill="#FFFFFF">
            <path d="M28.5,28.5 L28.5,20 L31.5,20 L31.5,28.5 L40,28.5 L40,31.5 L31.5,31.5 L31.5,40 L28.5,40 L28.5,31.5 L20,31.5 L20,28.5 L28.5,28.5 Z" id="Rectangle-2"></path>
        </g>
    </g>
</svg>
