<?xml version="1.0" encoding="UTF-8"?>
<svg width="12px" height="12px" viewBox="0 0 12 12" version="1.1" xmlns="http://www.w3.org/2000/svg" xmlns:xlink="http://www.w3.org/1999/xlink">
    <g id="Page-1" stroke="none" stroke-width="1" fill="none" fill-rule="evenodd">
        <g id="Elpaso__Dashboard" transform="translate(-138.000000, -1163.000000)" fill="#999999" fill-rule="nonzero">
            <g id="Cashflow" transform="translate(1.000000, 550.000000)">
                <g id="Text-Search" transform="translate(137.000000, 612.000000)">
                    <path d="M11.6742311,11.2599522 L9.07443825,8.66020717 C9.06062151,8.64639044 9.04441434,8.63673307 9.0299761,8.62387251 C9.54152988,7.84788845 9.84009562,6.91901195 9.84009562,5.92009562 C9.84009562,3.20278884 7.63730677,1 4.92004781,1 C2.20278884,1 0,3.20278884 0,5.92004781 C0,8.63725896 2.20274104,10.8400956 4.92,10.8400956 C5.91896414,10.8400956 6.84779283,10.5415299 7.62377689,10.0299761 C7.63663745,10.0443665 7.64624701,10.0605737 7.66006375,10.0743904 L10.2599044,12.6742311 C10.6504542,13.0647331 11.2836335,13.0647331 11.6742311,12.6742311 C12.0647331,12.2836813 12.0647331,11.650502 11.6742311,11.2599522 Z M4.92004781,9.13447012 C3.14471713,9.13447012 1.70557769,7.69533068 1.70557769,5.92004781 C1.70557769,4.14471713 3.14476494,2.70557769 4.92004781,2.70557769 C6.69528287,2.70557769 8.13447012,4.14476494 8.13447012,5.92004781 C8.13447012,7.69533068 6.69528287,9.13447012 4.92004781,9.13447012 Z" id="Shape"></path>
                </g>
            </g>
        </g>
    </g>
</svg>
