<?xml version="1.0" encoding="UTF-8"?>
<svg width="48px" height="48px" viewBox="0 0 48 48" version="1.1" xmlns="http://www.w3.org/2000/svg" xmlns:xlink="http://www.w3.org/1999/xlink">
    <g id="Page-1" stroke="none" stroke-width="1" fill="none" fill-rule="evenodd">
        <g id="UserProfile" transform="translate(-540.000000, -1087.000000)">
            <g id="Upload" transform="translate(540.000000, 1065.000000)">
                <g id="smile" transform="translate(0.000000, 22.000000)">
                    <g id="Group-2">
                        <circle id="Oval" fill="#ECECEC" cx="24" cy="24" r="24"></circle>
                        <path d="M15.0122514,28 L32.9877486,28 C32.9958826,28.1568658 33,28.3147942 33,28.4736842 C33,33.444247 28.9705627,37.4736842 24,37.4736842 C19.0294373,37.4736842 15,33.444247 15,28.4736842 C15,28.3147942 15.0041174,28.1568658 15.0122514,28 Z" id="Combined-Shape" fill="#A5A5A5"></path>
                        <g id="Group" transform="translate(15.000000, 17.000000)" fill="#A5A5A5">
                            <circle id="Oval" cx="3" cy="3" r="3"></circle>
                            <circle id="Oval" cx="15" cy="3" r="3"></circle>
                        </g>
                    </g>
                </g>
            </g>
        </g>
    </g>
</svg>
